[
    {
        "albumId": 1,
        "id": 1,
        "title": "Nha Hang Vua Cua",
        "image": "images/abc.png"
    },
    {
        "albumId": 1,
        "id": 2,
        "title": "Nagon Villa Salgon",
        "image": "images/ngon.png"
    },
    {
        "albumId": 1,
        "id": 3,
        "title": "MaM 148",
        "image": "images/mam.jpg"
    },
    {
        "albumId": 1,
        "id": 4,
        "title": "Vo Roof Garden",
        "image": "images/vo_roof_garden.png"
    },
    {
        "albumId": 1,
        "id": 5,
        "title": "Cyclo Resto",
        "image": "images/cyclorest.png"
    },
    {
        "albumId": 1,
        "id": 6,
        "title": "Hum Veg, Cafe & Restaurant",
        "image": "images/vegan.png"
    },
    {
        "albumId": 1,
        "id": 7,
        "title": "Citadel Salgon",
        "image": "images/citadel.png"
    },
    {
        "albumId": 1,
        "id": 8,
        "title": "Bun Bo Nam Bo-Ba Ba",
        "image": "images/bun.png"
    },
    {
        "albumId": 1,
        "id": 9,
        "title": "Anan Salgon",
        "image": "images/anan.png"
    },
    {
        "albumId": 1,
        "id": 10,
        "title": "Salgon Coffee Roastery",
        "image": "images/salgaoncoffee.png"
    },
    {
        "albumId": 1,
        "id": 11,
        "title": "Banh Mi Pho You",
        "image": "images/bmpu.png"
    },
    {
        "albumId": 1,
        "id": 12,
        "title": "Royal Salgon Restaurant",
        "image": "images/royalsalgon.png"
    }
]