[
    {
        "image": "images/vo_roof_garden.png",
        "gift_item_name": "Vo Roof Garden",
        "rainbow_point": "RRP",
        "point_data": "100",
        "price_data": "₫ 5000",
        "expires_date": "31 Mar 2020",
        "purchased_date": "08 Mar 2020"
    },
    {
        "image": "images/citadel.png",
        "gift_item_name": "Citadel Salgon",
        "rainbow_point": "RRP",
        "point_data": "100",
        "price_data": "₫ 5000",
        "expires_date": "31 Mar 2020",
        "purchased_date": "08 Mar 2020"
    },
    {
        "image": "images/cyclorest.png",
        "gift_item_name": "Cyclo Resto",
        "rainbow_point": "RRP",
        "point_data": "100",
        "price_data": "₫ 5000",
        "expires_date": "31 Mar 2020",
        "purchased_date": "08 Mar 2020"
    },
    {
        "image": "images/mam.jpg.jpg",
        "gift_item_name": "MaM 148",
        "rainbow_point": "RRP",
        "point_data": "100",
        "price_data": "₫ 5000",
        "expires_date": "31 Mar 2020",
        "purchased_date": "08 Mar 2020"
    },
    {
        "image": "images/vo_roof_garden.png",
        "gift_item_name": "Vo Roof Garden",
        "rainbow_point": "RRP",
        "point_data": "100",
        "price_data": "₫ 5000",
        "expires_date": "31 April 2020",
        "purchased_date": "08 May 2020"
    }
]